project_9/project_9.sim/sim_1/behav/xsim/simulate.log
Vivado Simulator 2019.1
Time resolution is 1 ps
===== RISC-V Forwarding Simulation Model Version 1.3 =====
**** RISC_V Forwarding model: Loaded instruction memory 'forwarding_inst.txt' ****
**** RISC-V Simulation model: Loaded data memory 'forwarding_data.txt' ****
**** Testbench: Loaded instruction memory ****
**** Testbench: Loaded data memory ****
===== RISCV FORWARDING TESTBENCH V 1.3 =====
 use run -all
25 ns:
  IF: PC=0x00000000
  ID: PC=0xxxxxxxxx I=0x00000013 [addi x0,x0,0x0]
  EX: PC=0xxxxxxxxx I=0x00000013 [addi x0,x0,0x0]
  MEM:PC=0xxxxxxxxx I=0x00000013 [addi x0,x0,0x0]
  WB: PC=0xxxxxxxxx I=0x00000013 [addi x0,x0,0x0] 
40 ns:
  IF: PC=0x00000004
  ID: PC=0x00000000 I=0x00100093 [addi x1,x0,0x1]
  EX: PC=0xxxxxxxxx I=0x00000013 [addi x0,x0,0x0]
  MEM:PC=0xxxxxxxxx I=0x00000013 [addi x0,x0,0x0]
  WB: PC=0xxxxxxxxx I=0x00000013 [addi x0,x0,0x0] 
50 ns:
  IF: PC=0x00000008
  ID: PC=0x00000004 I=0x00400113 [addi x2,x0,0x4]
  EX: PC=0x00000000 I=0x00100093 [addi x1,x0,0x1] alu result=0x1 
  MEM:PC=0xxxxxxxxx I=0x00000013 [addi x0,x0,0x0]
  WB: PC=0xxxxxxxxx I=0x00000013 [addi x0,x0,0x0] 
60 ns:
  IF: PC=0x0000000c
  ID: PC=0x00000008 I=0x002081b3 [add x3,x1,x2]
  EX: PC=0x00000004 I=0x00400113 [addi x2,x0,0x4] alu result=0x4 
  MEM:PC=0x00000000 I=0x00100093 [addi x1,x0,0x1]
  WB: PC=0xxxxxxxxx I=0x00000013 [addi x0,x0,0x0] 
70 ns:
  IF: PC=0x00000010
  ID: PC=0x0000000c I=0x40218233 [sub x4,x3,x2]
  EX: PC=0x00000008 I=0x002081b3 [add x3,x1,x2] alu result=0x5  [FWD WB(0x1) to r1] [FWD MEM(0x4) to r2]
  MEM:PC=0x00000004 I=0x00400113 [addi x2,x0,0x4]
  WB: PC=0x00000000 I=0x00100093 [addi x1,x0,0x1] WriteBackData=0x1 
80 ns:
  IF: PC=0x00000014
  ID: PC=0x00000010 I=0x001272b3 [and x5,x4,x1]
  EX: PC=0x0000000c I=0x40218233 [sub x4,x3,x2] alu result=0x1  [FWD MEM(0x5) to r1] [FWD WB(0x4) to r2]
  MEM:PC=0x00000008 I=0x002081b3 [add x3,x1,x2]
  WB: PC=0x00000004 I=0x00400113 [addi x2,x0,0x4] WriteBackData=0x4 
90 ns:
  IF: PC=0x00000018
  ID: PC=0x00000014 I=0x00222333 [slt x6,x4,x2]
  EX: PC=0x00000010 I=0x001272b3 [and x5,x4,x1] alu result=0x1  [FWD MEM(0x1) to r1]
  MEM:PC=0x0000000c I=0x40218233 [sub x4,x3,x2]
  WB: PC=0x00000008 I=0x002081b3 [add x3,x1,x2] WriteBackData=0x5 
100 ns:
  IF: PC=0x0000001c
  ID: PC=0x00000018 I=0x006263b3 [or x7,x4,x6]
  EX: PC=0x00000014 I=0x00222333 [slt x6,x4,x2] alu result=0x1  [FWD WB(0x1) to r1]
  MEM:PC=0x00000010 I=0x001272b3 [and x5,x4,x1]
  WB: PC=0x0000000c I=0x40218233 [sub x4,x3,x2] WriteBackData=0x1 
110 ns:
  IF: PC=0x00000020
  ID: PC=0x0000001c I=0x0062c433 [xor x8,x5,x6]
  EX: PC=0x00000018 I=0x006263b3 [or x7,x4,x6] alu result=0x1  [FWD MEM(0x1) to r2]
  MEM:PC=0x00000014 I=0x00222333 [slt x6,x4,x2]
  WB: PC=0x00000010 I=0x001272b3 [and x5,x4,x1] WriteBackData=0x1 
120 ns:
  IF: PC=0x00000024
  ID: PC=0x00000020 I=0x008404b3 [add x9,x8,x8]
  EX: PC=0x0000001c I=0x0062c433 [xor x8,x5,x6] alu result=0x0  [FWD WB(0x1) to r2]
  MEM:PC=0x00000018 I=0x006263b3 [or x7,x4,x6]
  WB: PC=0x00000014 I=0x00222333 [slt x6,x4,x2] WriteBackData=0x1 
130 ns:
  IF: PC=0x00000028
  ID: PC=0x00000024 I=0x00842533 [slt x10,x8,x8]
  EX: PC=0x00000020 I=0x008404b3 [add x9,x8,x8] alu result=0x0  [FWD MEM(0x0) to r1] [FWD MEM(0x0) to r2]
  MEM:PC=0x0000001c I=0x0062c433 [xor x8,x5,x6]
  WB: PC=0x00000018 I=0x006263b3 [or x7,x4,x6] WriteBackData=0x1 
140 ns:
  IF: PC=0x0000002c
  ID: PC=0x00000028 I=0x00100013 [addi x0,x0,0x1]
  EX: PC=0x00000024 I=0x00842533 [slt x10,x8,x8] alu result=0x0  [FWD WB(0x0) to r1] [FWD WB(0x0) to r2]
  MEM:PC=0x00000020 I=0x008404b3 [add x9,x8,x8]
  WB: PC=0x0000001c I=0x0062c433 [xor x8,x5,x6] WriteBackData=0x0 
150 ns:
  IF: PC=0x00000030
  ID: PC=0x0000002c I=0x001001b3 [add x3,x0,x1]
  EX: PC=0x00000028 I=0x00100013 [addi x0,x0,0x1]
  MEM:PC=0x00000024 I=0x00842533 [slt x10,x8,x8]
  WB: PC=0x00000020 I=0x008404b3 [add x9,x8,x8] WriteBackData=0x0 
160 ns:
  IF: PC=0x00000034
  ID: PC=0x00000030 I=0x40100233 [sub x4,x0,x1]
  EX: PC=0x0000002c I=0x001001b3 [add x3,x0,x1] alu result=0x1  ** ERR** incorrect alu result=2
  MEM:PC=0x00000028 I=0x00100013 [addi x0,x0,0x1]
  WB: PC=0x00000024 I=0x00842533 [slt x10,x8,x8] WriteBackData=0x0 
*** Error: Simulation Stopped due to errors ***
$finish called at time : 160 ns : File "J:/ECEN 323 Labs/project_9/riscv_forward_sim_model.sv" Line 293
